sick		0.00 0.10 0.00 0.00 0.00 0.00 0.90 0.00 0.00
ashamed		0.00 0.00 0.00 0.20 0.00 0.00 0.40 0.90 0.00
stressful	0.20 0.20 0.00 0.00 0.00 0.00 0.70 0.00 0.00
enjoyable	0.00 0.00 0.00 0.00 0.00 1.00 0.00 0.00 0.00
pretty		0.00 0.00 0.00 0.00 0.20 0.40 0.00 0.00 0.10
rude		0.30 0.00 0.00 0.00 0.00 0.00 0.70 0.00 0.00
cruel		0.30 0.00 0.00 0.00 0.00 0.00 0.70 0.00 0.00
cool		0.00 0.00 0.00 0.00 0.20 0.60 0.00 0.00 0.00
nice		0.00 0.00 0.00 0.00 0.20 0.60 0.00 0.00 0.00
mad		0.70 0.00 0.00 0.00 0.00 0.00 0.60 0.00 0.00
handsome	0.00 0.00 0.00 0.00 0.00 0.20 0.00 0.00 0.00
appealing	0.00 0.00 0.00 0.00 0.70 0.60 0.00 0.00 0.30
brilliant	0.00 0.00 0.00 0.00 0.00 0.50 0.00 0.00 0.00
awesome		0.00 0.00 0.00 0.00 0.20 0.70 0.00 0.00 0.30
sympathy	0.00 0.00 0.00 0.00 0.00 0.00 0.20 0.00 0.00
wired		0.00 0.20 0.10 0.00 0.00 0.00 0.00 0.00 0.20
tear		0.00 0.00 0.00 0.00 0.00 0.00 0.40 0.00 0.00
shameless	0.40 0.70 0.00 0.00 0.00 0.00 0.00 0.00 0.00
fabulous	0.00 0.00 0.00 0.00 0.30 0.50 0.00 0.00 0.80
refuse		0.00 0.00 0.00 0.00 0.00 0.00 0.40 0.00 0.00
winking		0.00 0.00 0.00 0.00 0.10 0.30 0.00 0.00 0.00
grin		0.00 0.00 0.00 0.00 0.20 0.60 0.00 0.00 0.00
refusal		0.00 0.00 0.00 0.00 0.00 0.00 0.40 0.00 0.00		
lucky		0.00 0.00 0.00 0.00 0.00 0.70 0.00 0.00 0.00
attackable	0.00 0.00 0.40 0.00 0.00 0.00 0.50 0.00 0.00
resentment	0.60 0.20 0.00 0.00 0.00 0.00 0.00 0.00 0.00
attacking	0.00 0.00 0.40 0.00 0.00 0.00 0.50 0.00 0.00
dear		0.00 0.00 0.00 0.00 0.00 0.70 0.00 0.00 0.00
stressed	0.00 0.00 0.00 0.00 0.00 0.00 0.50 0.00 0.00
stress		0.00 0.00 0.00 0.00 0.00 0.00 0.50 0.00 0.00
headaches	0.00 0.00 0.00 0.00 0.00 0.00 0.50 0.00 0.00
blushing	0.00 0.00 0.00 0.00 0.00 0.00 0.00 0.50 0.00
well-being	0.00 0.00 0.00 0.00 0.30 0.50 0.00 0.00 0.00
ugly		0.00 0.00 0.00 0.00 0.00 0.00 0.20 0.00 0.00
good		0.00 0.00 0.00 0.00 0.30 0.80 0.00 0.00 0.30
bitter		0.50 0.50 0.00 0.00 0.00 0.00 0.20 0.00 0.00
angry		1.00 0.40 0.00 0.00 0.00 0.00 0.20 0.00 0.00
furious		1.00 0.30 0.00 0.00 0.00 0.00 0.20 0.00 0.00
fine		0.00 0.00 0.00 0.00 0.40 0.80 0.00 0.00 0.20
cute		0.00 0.00 0.00 0.00 0.30 0.80 0.00 0.00 0.10
sweet		0.00 0.00 0.00 0.00 0.20 0.70 0.00 0.00 0.10
annoyed		0.40 0.60 0.00 0.00 0.00 0.00 0.20 0.00 0.00
annoying	0.40 0.60 0.00 0.00 0.00 0.00 0.20 0.00 0.00
irate		0.40 0.60 0.00 0.00 0.00 0.00 0.20 0.00 0.00
irritated	0.40 0.60 0.00 0.00 0.00 0.00 0.20 0.00 0.00
hated		0.40 0.60 0.00 0.00 0.00 0.00 0.20 0.00 0.00
irritating	0.40 0.60 0.00 0.00 0.00 0.00 0.20 0.00 0.00
piqued		0.50 0.20 0.00 0.00 0.00 0.00 0.40 0.00 0.00
disturbing	0.10 0.30 0.20 0.00 0.00 0.00 0.60 0.00 0.00
indignant	0.80 0.40 0.00 0.00 0.00 0.00 0.20 0.00 0.00	
displeased	0.40 0.20 0.00 0.00 0.00 0.00 0.60 0.00 0.00
resentful	0.50 0.20 0.40 0.00 0.00 0.00 0.40 0.00 0.00
exasperated	0.50 0.60 0.00 0.00 0.00 0.00 0.10 0.00 0.00
exasperating	0.50 0.60 0.00 0.00 0.00 0.00 0.10 0.00 0.00
dissatisfied	0.40 0.20 0.00 0.00 0.00 0.00 0.60 0.00 0.00
great		0.00 0.00 0.00 0.00 0.30 0.80 0.00 0.00 0.50
bad		0.00 0.00 0.00 0.00 0.00 0.00 0.90 0.00 0.00
lucky		0.00 0.00 0.00 0.00 0.30 0.90 0.00 0.00 0.50
vexatious	0.80 0.20 0.00 0.00 0.00 0.00 0.00 0.00 0.00
disgusting	0.20 1.00 0.00 0.00 0.00 0.00 0.20 0.00 0.00
frustrated	0.20 0.00 0.00 0.00 0.00 0.00 0.70 0.00 0.00
aggravated	0.50 0.50 0.10 0.00 0.00 0.00 0.30 0.00 0.00
bored		0.10 0.80 0.00 0.00 0.00 0.00 0.50 0.00 0.00
boring		0.10 0.80 0.00 0.00 0.00 0.00 0.50 0.00 0.00
disgusted	0.20 1.00 0.00 0.00 0.00 0.00 0.20 0.00 0.00
revolting	0.10 0.50 0.00 0.00 0.00 0.00 0.70 0.00 0.00
repulsive	0.10 0.50 0.00 0.00 0.00 0.00 0.70 0.00 0.00
sickening	0.30 0.50 0.00 0.00 0.00 0.00 0.70 0.00 0.00
nasty		0.10 0.40 0.20 0.00 0.00 0.00 0.70 0.00 0.00
obnoxious	0.30 0.50 0.00 0.00 0.00 0.00 0.70 0.00 0.00
odious		0.30 0.50 0.00 0.00 0.00 0.00 0.70 0.00 0.00
distasteful	0.10 0.20 0.00 0.00 0.00 0.00 0.70 0.00 0.00
alarmed		0.00 0.00 0.50 0.00 0.00 0.00 0.50 0.00 0.00
alarming	0.00 0.00 0.50 0.00 0.00 0.00 0.50 0.00 0.00
desperate	0.00 0.00 0.40 0.00 0.00 0.00 0.20 0.00 0.00
dangerous	0.00 0.00 0.70 0.00 0.00 0.00 0.00 0.00 0.00
frightened	0.00 0.00 0.80 0.00 0.00 0.00 0.40 0.00 0.00
horrible	0.00 0.00 0.80 0.00 0.00 0.00 0.40 0.00 0.00
horrific	0.00 0.00 0.60 0.00 0.00 0.00 0.60 0.00 0.00
frightening	0.00 0.00 0.80 0.00 0.00 0.00 0.40 0.00 0.00
intimidated	0.00 0.00 0.50 0.00 0.00 0.00 0.40 0.00 0.00
panicky		0.00 0.00 0.70 0.00 0.00 0.00 0.40 0.00 0.00
risky		0.00 0.00 0.70 0.00 0.00 0.00 0.40 0.00 0.00
petrified	0.00 0.00 0.80 0.00 0.00 0.00 0.40 0.00 0.00
anxious		0.00 0.00 0.80 0.00 0.00 0.00 0.60 0.00 0.00
fearful		0.00 0.00 0.80 0.00 0.00 0.00 0.20 0.00 0.00
threatening	0.00 0.00 0.80 0.00 0.00 0.00 0.20 0.00 0.00
afraid		0.00 0.00 1.00 0.00 0.00 0.00 0.20 0.00 0.00
terrible	0.00 0.00 0.80 0.00 0.00 0.00 0.20 0.00 0.00
guilty		0.00 0.20 0.00 1.00 0.00 0.00 0.50 0.30 0.00
culpable	0.00 0.20 0.00 0.70 0.00 0.00 0.50 0.30 0.00
wrongful	0.30 0.40 0.00 0.50 0.00 0.00 0.30 0.40 0.00
blameworthy	0.00 0.20 0.00 0.60 0.00 0.00 0.20 0.30 0.00
responsible	0.00 0.10 0.00 0.40 0.00 0.00 0.20 0.00 0.00
liable		0.00 0.20 0.00 0.40 0.00 0.00 0.20 0.30 0.00
ashamed		0.00 0.20 0.00 0.30 0.00 0.00 0.20 0.80 0.00
interesting	0.00 0.00 0.00 0.00 1.00 0.30 0.00 0.00 0.40
absorbing	0.00 0.00 0.00 0.00 0.50 0.30 0.00 0.00 0.20
fascinating	0.00 0.00 0.00 0.00 0.80 0.30 0.00 0.00 0.40
keen		0.00 0.00 0.00 0.00 0.80 0.30 0.00 0.00 0.40
captivating	0.00 0.00 0.00 0.00 0.50 0.30 0.00 0.00 0.20
eager		0.00 0.00 0.00 0.00 0.50 0.30 0.00 0.00 0.20
gripping	0.00 0.00 0.00 0.00 0.70 0.70 0.00 0.00 0.20
curious		0.00 0.00 0.00 0.00 1.00 0.30 0.00 0.00 0.40
attractive	0.00 0.00 0.00 0.00 0.70 0.70 0.00 0.00 0.20
astonishing	0.00 0.00 0.00 0.00 0.30 0.40 0.00 0.00 0.80
charming	0.00 0.00 0.00 0.00 0.50 0.60 0.00 0.00 0.20
happy		0.00 0.00 0.00 0.00 0.10 1.00 0.00 0.00 0.10
ebullient	0.00 0.00 0.00 0.00 0.10 0.70 0.00 0.00 0.10
beautiful	0.00 0.00 0.00 0.00 0.20 0.60 0.00 0.00 0.20
cheerful	0.00 0.00 0.00 0.00 0.20 0.70 0.00 0.00 0.10
joyful		0.00 0.00 0.00 0.00 0.10 1.00 0.00 0.00 0.10
jolly		0.00 0.00 0.00 0.00 0.20 0.70 0.00 0.00 0.10
delighted	0.00 0.00 0.00 0.00 0.20 0.80 0.00 0.00 0.10
glad		0.00 0.00 0.00 0.00 0.20 0.80 0.00 0.00 0.10
pleased		0.00 0.00 0.00 0.00 0.20 0.70 0.00 0.00 0.10
merry		0.00 0.00 0.00 0.00 0.20 0.80 0.00 0.00 0.10
joyous		0.00 0.00 0.00 0.00 0.10 1.00 0.00 0.00 0.10
terrific	0.00 0.00 0.00 0.00 0.20 0.80 0.00 0.00 0.10
enthusiastic	0.00 0.00 0.00 0.00 0.50 0.60 0.00 0.00 0.20
excited		0.00 0.00 0.00 0.00 0.40 0.60 0.00 0.00 0.20
elated		0.00 0.00 0.00 0.00 0.30 1.00 0.00 0.00 0.10
proud		0.00 0.00 0.00 0.00 0.20 0.60 0.00 0.00 0.20
satisfied	0.00 0.00 0.00 0.00 0.20 0.60 0.00 0.00 0.20
hopeful		0.00 0.00 0.00 0.00 0.20 0.60 0.00 0.00 0.20
sparkling	0.00 0.00 0.00 0.00 0.20 0.70 0.00 0.00 0.20
marvellous	0.00 0.00 0.00 0.00 0.30 0.80 0.00 0.00 0.60
superb		0.00 0.00 0.00 0.00 0.30 0.80 0.00 0.00 0.60
wondrous	0.00 0.00 0.00 0.00 0.30 0.80 0.00 0.00 0.80
pleasant	0.00 0.00 0.00 0.00 0.20 0.60 0.00 0.00 0.20
pleasurable	0.00 0.00 0.00 0.00 0.20 0.60 0.00 0.00 0.20
thankful	0.00 0.00 0.00 0.00 0.20 0.60 0.00 0.00 0.20
sad		0.00 0.00 0.00 0.00 0.00 0.00 1.00 0.00 0.00
unhappy		0.00 0.00 0.00 0.00 0.00 0.00 0.80 0.00 0.00
sorry		0.00 0.00 0.00 0.00 0.00 0.00 0.80 0.00 0.00
gloomy		0.00 0.20 0.00 0.00 0.00 0.00 0.80 0.00 0.00
sorrowful	0.00 0.00 0.00 0.00 0.00 0.00 0.80 0.00 0.00
doleful		0.00 0.00 0.00 0.00 0.00 0.00 0.80 0.00 0.00
dismayed	0.00 0.00 0.00 0.00 0.00 0.00 0.80 0.00 0.00
painful		0.00 0.00 0.00 0.00 0.00 0.00 0.80 0.00 0.00
punished	0.00 0.00 0.00 0.30 0.00 0.00 0.80 0.00 0.00
punishing	0.00 0.00 0.00 0.30 0.00 0.00 0.80 0.00 0.00
damaged		0.00 0.00 0.00 0.00 0.00 0.00 0.40 0.00 0.00
troubled	0.00 0.00 0.00 0.00 0.00 0.00 0.60 0.00 0.00
hateful		0.00 0.30 0.00 0.00 0.00 0.00 0.80 0.00 0.00
troubling	0.00 0.00 0.00 0.00 0.00 0.00 0.60 0.00 0.00
worried		0.00 0.00 0.40 0.00 0.00 0.00 0.50 0.00 0.00
injured		0.00 0.00 0.00 0.00 0.00 0.00 0.60 0.00 0.00
wounded		0.00 0.00 0.00 0.00 0.00 0.00 0.60 0.00 0.00
rejected	0.00 0.00 0.00 0.40 0.00 0.00 0.60 0.00 0.00
awful		0.00 0.80 0.00 0.00 0.00 0.00 0.60 0.00 0.00
destroyed	0.00 0.00 0.00 0.00 0.00 0.00 0.60 0.00 0.00
wistful		0.00 0.00 0.00 0.00 0.00 0.00 0.70 0.00 0.00
mournful	0.00 0.00 0.00 0.00 0.00 0.00 0.80 0.00 0.00
neglected	0.00 0.00 0.00 0.00 0.00 0.00 0.60 0.00 0.00
dejected	0.00 0.00 0.10 0.00 0.00 0.00 0.80 0.00 0.00
tensed		0.00 0.00 0.00 0.00 0.00 0.00 0.60 0.00 0.00
trapped		0.00 0.00 0.30 0.00 0.00 0.00 0.60 0.00 0.00
distressed	0.00 0.00 0.00 0.00 0.00 0.00 0.60 0.00 0.00
upset		0.00 0.00 0.00 0.00 0.00 0.00 0.70 0.00 0.00
cheated		0.40 0.30 0.00 0.00 0.00 0.00 0.60 0.00 0.00
regretful	0.00 0.00 0.10 0.00 0.00 0.00 0.90 0.00 0.00
disappointed	0.30 0.40 0.00 0.00 0.00 0.00 0.80 0.00 0.00
disappointing	0.30 0.40 0.00 0.00 0.00 0.00 0.80 0.00 0.00
tragic		0.00 0.00 0.00 0.00 0.00 0.00 0.60 0.00 0.00
remorseful	0.00 0.00 0.00 0.80 0.00 0.00 0.80 0.00 0.00
blue		0.00 0.00 0.00 0.00 0.00 0.00 0.60 0.00 0.00
grief		0.00 0.00 0.00 0.00 0.00 0.00 0.80 0.00 0.00
insulted	0.40 0.40 0.00 0.20 0.00 0.00 0.80 0.00 0.00
wrecked		0.00 0.00 0.00 0.00 0.00 0.00 0.60 0.00 0.00
shameful	0.00 0.00 0.00 0.00 0.00 0.00 0.00 1.00 0.00
disgraceful	0.20 0.30 0.00 0.00 0.00 0.00 0.80 0.40 0.00
deplorable	0.00 0.00 0.00 0.00 0.00 0.00 0.60 0.00 0.00
dishonourable	0.10 0.10 0.00 0.30 0.00 0.00 0.60 0.40 0.00
shy		0.00 0.20 0.00 0.40 0.00 0.00 0.70 1.00 0.00
ashamed		0.10 0.20 0.00 0.30 0.00 0.00 0.70 1.00 0.00
shameful	0.10 0.20 0.00 0.30 0.00 0.00 0.70 1.00 0.00
shamefaced	0.10 0.20 0.00 0.30 0.00 0.00 0.70 1.00 0.00
embarrassed	0.10 0.20 0.00 0.20 0.00 0.00 0.70 1.00 0.00
embarrassing	0.10 0.20 0.00 0.20 0.00 0.00 0.70 1.00 0.00
flushed		0.10 0.20 0.00 0.10 0.00 0.00 0.00 0.80 0.00
ignoble		0.10 0.20 0.00 0.10 0.00 0.00 0.00 0.60 0.00
awkward		0.00 0.20 0.00 0.00 0.00 0.00 0.50 0.10 0.00
uncomfortable	0.10 0.20 0.00 0.10 0.00 0.00 0.00 0.60 0.00
uneasy		0.00 0.40 0.00 0.00 0.00 0.00 0.50 0.10 0.00
surprising	0.00 0.00 0.00 0.00 0.50 0.50 0.00 0.00 1.00
astonished	0.00 0.00 0.00 0.00 0.50 0.50 0.00 0.00 1.00
surprised	0.00 0.00 0.00 0.00 0.50 0.50 0.00 0.00 1.00
fortunate	0.00 0.00 0.00 0.00 0.00 0.60 0.00 0.00 0.00
miracle		0.00 0.00 0.00 0.00 0.00 0.60 0.00 0.00 1.00
wonderful	0.00 0.00 0.00 0.00 0.50 0.60 0.00 0.00 0.80
impressed	0.00 0.00 0.00 0.00 0.50 0.60 0.00 0.00 0.80
unbelievable	0.00 0.00 0.00 0.00 0.00 0.00 0.00 0.00 0.80
amazing		0.00 0.00 0.00 0.00 0.00 0.00 0.00 0.00 0.80
startling	0.00 0.00 0.00 0.00 0.00 0.00 0.40 0.00 0.70
unexpected	0.00 0.00 0.00 0.00 0.00 0.00 0.00 0.00 0.80
unforeseen	0.00 0.00 0.00 0.00 0.00 0.00 0.00 0.00 0.50
unfortunate	0.00 0.00 0.00 0.00 0.00 0.00 0.80 0.00 0.00
incredulous	0.00 0.00 0.00 0.00 0.30 0.20 0.00 0.00 0.60
amazed		0.00 0.00 0.00 0.00 0.50 0.60 0.00 0.00 0.80
tremendous  	0.00 0.00 0.00 0.00 0.40 0.80 0.00 0.00 0.50  