luckily		0.00 0.00 0.00 0.00 0.00 0.70 0.00 0.00 0.00
stressfully		0.20 0.20 0.00 0.00 0.00 0.00 0.70 0.00 0.00
enjoyingly		0.00 0.00 0.00 0.00 0.00 1.00 0.00 0.00 0.00
brilliantly		0.00 0.00 0.00 0.00 0.00 0.50 0.00 0.00 0.00
fabulous		0.00 0.00 0.00 0.00 0.30 0.50 0.00 0.00 0.80
bitterly		0.50 0.50 0.00 0.00 0.00 0.00 0.20 0.00 0.00
angrily 		1.00 0.40 0.00 0.00 0.00 0.00 0.20 0.00 0.00
furiousy		1.00 0.30 0.00 0.00 0.00 0.00 0.20 0.00 0.00
annoyingly		0.40 0.60 0.00 0.00 0.00 0.00 0.20 0.00 0.00
irritatingly		0.40 0.60 0.00 0.00 0.00 0.00 0.20 0.00 0.00
indignantly 		0.80 0.40 0.00 0.00 0.00 0.00 0.20 0.00 0.00
disturbingly		0.10 0.30 0.20 0.00 0.00 0.00 0.60 0.00 0.00
resentfully		0.50 0.20 0.40 0.00 0.00 0.00 0.40 0.00 0.00
vexatiously 		0.80 0.20 0.00 0.00 0.00 0.00 0.00 0.00 0.00
exasperatedly		0.40 0.60 0.00 0.00 0.00 0.00 0.20 0.00 0.00
exasperatingly		0.40 0.60 0.00 0.00 0.00 0.00 0.20 0.00 0.00
hungry			0.10 0.20 0.00 0.00 0.00 0.00 0.50 0.00 0.00
hunger			0.10 0.20 0.00 0.00 0.00 0.00 0.50 0.00 0.00
disgustedly		0.20 1.00 0.00 0.00 0.00 0.00 0.20 0.00 0.00
disgustingly		0.20 1.00 0.00 0.00 0.00 0.00 0.20 0.00 0.00
boringly		0.10 0.80 0.00 0.00 0.00 0.00 0.50 0.00 0.00
revoltingly 		0.10 0.50 0.00 0.00 0.00 0.00 0.70 0.00 0.00
lonely			0.00 0.00 0.00 0.00 0.00 0.00 0.80 0.00 0.00
sickeningly		0.30 0.50 0.00 0.00 0.00 0.00 0.70 0.00 0.00
nastily 		0.10 0.40 0.20 0.00 0.00 0.00 0.70 0.00 0.00
obnoxiously		0.30 0.50 0.00 0.00 0.00 0.00 0.70 0.00 0.00
distastefully		0.10 0.20 0.00 0.00 0.00 0.00 0.70 0.00 0.00
alarmingly		0.00 0.00 0.50 0.00 0.00 0.00 0.50 0.00 0.00
dangerously		0.00 0.00 0.70 0.00 0.00 0.00 0.00 0.00 0.00
frighteningly		0.00 0.00 0.80 0.00 0.00 0.00 0.40 0.00 0.00
horribly		0.00 0.00 0.80 0.00 0.00 0.00 0.40 0.00 0.00
horrifically		0.00 0.00 0.80 0.00 0.00 0.00 0.80 0.00 0.00
fearfully		0.00 0.00 0.80 0.00 0.00 0.00 0.20 0.00 0.00
terribly		0.00 0.00 0.80 0.00 0.00 0.00 0.20 0.00 0.00
anxiously 		0.00 0.00 0.80 0.00 0.00 0.00 0.60 0.00 0.00
threateningly		0.00 0.00 0.80 0.00 0.00 0.00 0.20 0.00 0.00
riskily			0.00 0.00 0.70 0.00 0.00 0.00 0.40 0.00 0.00
guiltily		0.00 0.20 0.00 1.00 0.00 0.00 0.50 0.30 0.00
culpably		0.00 0.20 0.00 0.70 0.00 0.00 0.50 0.30 0.00
wrongfully		0.30 0.40 0.00 0.50 0.00 0.00 0.30 0.40 0.00
wrongly			0.30 0.40 0.00 0.50 0.00 0.00 0.30 0.40 0.00
interestingly		0.00 0.00 0.00 0.00 1.00 0.30 0.00 0.00 0.40
keenly			0.00 0.00 0.00 0.00 0.80 0.30 0.00 0.00 0.40
eagerly			0.00 0.00 0.00 0.00 0.50 0.30 0.00 0.00 0.20
curiously		0.00 0.00 0.00 0.00 1.00 0.30 0.00 0.00 0.40
attractively		0.00 0.00 0.00 0.00 0.70 0.70 0.00 0.00 0.20
astonishingly		0.00 0.00 0.00 0.00 0.30 0.40 0.00 0.00 0.80
charmingly		0.00 0.00 0.00 0.00 0.50 0.60 0.00 0.00 0.20
happily			0.00 0.00 0.00 0.00 0.10 1.00 0.00 0.00 0.10
ebulliently		0.00 0.00 0.00 0.00 0.10 0.70 0.00 0.00 0.10
beautifully		0.00 0.00 0.00 0.00 0.20 0.60 0.00 0.00 0.20
cheerfully		0.00 0.00 0.00 0.00 0.20 0.70 0.00 0.00 0.10
joyfully		0.00 0.00 0.00 0.00 0.10 1.00 0.00 0.00 0.10
delightedly		0.00 0.00 0.00 0.00 0.20 0.80 0.00 0.00 0.10
joyously		0.00 0.00 0.00 0.00 0.10 1.00 0.00 0.00 0.10
terrifically		0.00 0.00 0.00 0.00 0.20 0.80 0.00 0.00 0.10
enthusiastically 	0.00 0.00 0.00 0.00 0.50 0.60 0.00 0.00 0.20
excitedly		0.00 0.00 0.00 0.00 0.40 0.60 0.00 0.00 0.20
proudly			0.00 0.00 0.00 0.00 0.20 0.60 0.00 0.00 0.20
hopefully		0.00 0.00 0.00 0.00 0.20 0.60 0.00 0.00 0.20
pleasantly		0.00 0.00 0.00 0.00 0.20 0.60 0.00 0.00 0.20
thankfully		0.00 0.00 0.00 0.00 0.20 0.60 0.00 0.00 0.20
jubilantly		0.00 0.00 0.00 0.00 0.10 1.00 0.00 0.00 0.10
gladly			0.00 0.00 0.00 0.00 0.50 0.60 0.00 0.00 0.10
lovely			0.00 0.00 0.00 0.00 0.40 0.60 0.00 0.00 0.10
sadly			0.00 0.00 0.00 0.00 0.00 0.00 1.00 0.00 0.00
unhappily		0.00 0.00 0.00 0.00 0.00 0.00 0.80 0.00 0.00
gloomily		0.00 0.20 0.00 0.00 0.00 0.00 0.80 0.00 0.00
sorrowfully		0.00 0.00 0.00 0.00 0.00 0.00 0.80 0.00 0.00
dolefully		0.00 0.00 0.00 0.00 0.00 0.00 0.80 0.00 0.00
painfully		0.00 0.00 0.00 0.00 0.00 0.00 0.80 0.00 0.00
punishingly		0.00 0.00 0.00 0.30 0.00 0.00 0.80 0.00 0.00
troublingly 		0.00 0.00 0.00 0.00 0.00 0.00 0.60 0.00 0.00
worriedly		0.00 0.00 0.40 0.00 0.00 0.00 0.50 0.00 0.00
dejectedly 		0.00 0.00 0.10 0.00 0.00 0.00 0.80 0.00 0.00
regretfully		0.00 0.00 0.10 0.00 0.00 0.00 0.90 0.00 0.00
disgracefully		0.20 0.30 0.00 0.00 0.00 0.00 0.80 0.40 0.00
deplorably		0.00 0.00 0.00 0.00 0.00 0.00 0.60 0.00 0.00
wistfully		0.00 0.00 0.00 0.00 0.00 0.00 0.70 0.00 0.00
mournfully		0.00 0.00 0.00 0.00 0.00 0.00 0.80 0.00 0.00
tensely			0.00 0.00 0.00 0.00 0.00 0.00 0.60 0.00 0.00
distressingly 		0.00 0.00 0.00 0.00 0.00 0.00 0.60 0.00 0.00
disappointingly		0.30 0.40 0.00 0.00 0.00 0.00 0.80 0.00 0.00
tragically		0.00 0.00 0.00 0.00 0.00 0.00 0.60 0.00 0.00
remorsefully		0.00 0.00 0.00 0.80 0.00 0.00 0.80 0.00 0.00
shyly			0.00 0.20 0.00 0.40 0.00 0.00 0.70 1.00 0.00
embarrassingly		0.10 0.20 0.00 0.20 0.00 0.00 0.70 1.00 0.00
ignobly 		0.10 0.20 0.00 0.10 0.00 0.00 0.00 0.60 0.00
uncomfortably		0.10 0.20 0.00 0.10 0.00 0.00 0.00 0.60 0.00
uneasily		0.00 0.40 0.00 0.00 0.00 0.00 0.50 0.10 0.00
incredulously 		0.00 0.00 0.00 0.00 0.30 0.20 0.00 0.00 0.60
awkwardly		0.00 0.20 0.00 0.00 0.00 0.00 0.50 0.60 0.00
shamefully 		0.10 0.20 0.00 0.30 0.00 0.00 0.70 1.00 0.00
shamefacedly		0.10 0.20 0.00 0.30 0.00 0.00 0.70 1.00 0.00
surprisingly		0.00 0.00 0.00 0.00 0.50 0.50 0.00 0.00 1.00
astonishingly 		0.00 0.00 0.00 0.00 0.50 0.50 0.00 0.00 1.00
fortunately		0.00 0.00 0.00 0.00 0.00 0.60 0.00 0.00 0.00
wonderfully		0.00 0.00 0.00 0.00 0.50 0.60 0.00 0.00 0.80
impressively		0.00 0.00 0.00 0.00 0.50 0.60 0.00 0.00 0.80
unbelievably		0.00 0.00 0.00 0.00 0.00 0.00 0.00 0.00 0.80
amazingly		0.00 0.00 0.00 0.00 0.00 0.00 0.00 0.00 0.80
startlingly		0.00 0.00 0.00 0.00 0.00 0.00 0.40 0.00 0.70
unexpectedly		0.00 0.00 0.00 0.00 0.00 0.00 0.00 0.00 0.80
unfortunately		0.00 0.00 0.00 0.00 0.00 0.00 0.80 0.00 0.00
incredulously		0.00 0.00 0.00 0.00 0.30 0.20 0.00 0.00 0.60
marvellously 		0.00 0.00 0.00 0.00 0.40 0.80 0.00 0.00 0.60
superbly		0.00 0.00 0.00 0.00 0.40 0.80 0.00 0.00 0.60
tremendously  		0.00 0.00 0.00 0.00 0.40 0.80 0.00 0.00 0.50